Seagle CH 3-4 Test
…
I tried multiple things included power transformations but I ended up finding that the interaction terms seemed to benefit my R-squared value and lower my p-value more significantly. However, I ended up not adding an interaction term to the model due to it messing making the plots have some form of linearity to them. I played around with different interaction terms and from what I tested several had low p-values but most if not all made the plotss worse so I reverted back to my original model (CFmr2).

donner <- read_xlsx("donner.xlsx")

train <- sample(45, 30, replace = FALSE)
train

##  [1] 29 24 42 15 12 28 17 36 13 33  4 11 45 41  9  3 39  8 32 10 26 19 14 25 38
## [26] 31  1 30 22 40

traindata <- donner[train,]
traindata

## # A tibble: 30 x 5
##    Name            Multifam   Sex   Age Survived
##    <chr>              <dbl> <dbl> <dbl>    <dbl>
##  1 McCutcheon Ama         1     1    24        1
##  2 Hardkoop Mr            0     0    60        0
##  3 Stanton Charles        0     0    35        0
##  4 Fosdick Sarah          1     1    22        1
##  5 Eddy William           1     0    28        1
##  6 Keseberg Phine         1     1    32        1
##  7 Foster William         1     0    28        1
##  8 Reed Margaret          1     1    32        1
##  9 Elliot Milton          0     0    28        0
## 10 Pike Harriet           1     1    21        1
## #  with 20 more rows
…
